Development and Validation of Prediction Model for Major Adverse Cardiac Events in Patients with Chronic Inflammatory Skin Diseases Undergoing Major Surgical
…
dim(admsubjcomplete)

## [1] 523740     41

Some additional variables for the patient files, including number of admissions and number of major adverse cardiac events (MACEs) per admission:

# Number of admits per patient
admsubjcomplete %>%
  dplyr::count(subject_id, sort = TRUE)

## # A tibble: 256,878 x 2
##    subject_id     n
##         <dbl> <int>
##  1   15496609   238
##  2   15464144   185
##  3   10714009   163
##  4   16662316   142
##  5   15229574   130
##  6   14394983   129
##  7   14799353    99
##  8   11553072    98
##  9   13475033    97
## 10   17517983    95
## # ... with 256,868 more rows
…
#Creating a MACE events per admission variable - stays with subject throughout admissions
admsubjcomplete <- admsubjcomplete %>%
  mutate(maceperadm = mace/numadm)

save(admsubjcomplete, file = "admsubjcomplete.RData")

load("admsubjcomplete.RData")

Adding in the same additional variables for derm patients file:

# Number of admits per patient
dermptscomplete %>%
  dplyr::count(subject_id, sort = TRUE)

## # A tibble: 1,908 x 2
##    subject_id     n
##         <dbl> <int>
##  1   19133405    79
##  2   12563258    67
##  3   11888614    61
##  4   10998537    55
##  5   17288913    55
##  6   19127408    53
##  7   11303674    49
##  8   14111050    46
##  9   11865363    44
## 10   16508811    41
## # ... with 1,898 more rows
…
